<?xml version="1.0" encoding="utf-8"?>
<!-- Generator: Adobe Illustrator 22.0.0, SVG Export Plug-In . SVG Version: 6.00 Build 0)  -->
<svg version="1.1" id="Layer_1" xmlns="http://www.w3.org/2000/svg" xmlns:xlink="http://www.w3.org/1999/xlink" x="0px" y="0px"
	 viewBox="0 0 126 126" style="enable-background:new 0 0 126 126;" xml:space="preserve">
<style type="text/css">
	.st0{clip-path:url(#SVGID_2_);}
	.st1{fill:#FC502A;}
	.st2{fill:#E60D28;}
	.st3{fill:#CCC5B9;}
	.st4{fill:#403D39;}
	.st5{fill:#EB5E28;}
	.st6{fill:#E9EAEB;}
	.st7{fill:#BFD8CE;}
	.st8{fill:#CE4C24;}
	.st9{fill:#FFFCF2;}
	.st10{fill:#252422;}
	.st11{fill:none;}
</style>
<g>
	<defs>
		<rect id="SVGID_1_" y="0" width="126" height="126"/>
	</defs>
	<clipPath id="SVGID_2_">
		<use xlink:href="#SVGID_1_"  style="overflow:visible;"/>
	</clipPath>
	<g class="st0">
		<path class="st1" d="M92.9,53c0,0,1-1,1-5.8c0-6.9-2.6-12-2.6-12h-8.8c0,0-2.6,5-2.6,12c0,4.8,1,5.8,1,5.8l-7.9,6.3
			c-1.3,1-2,2.6-2,4.2v49.1c0,1.7,1.4,3.2,3.2,3.2h25.4c1.7,0,3.2-1.4,3.2-3.2V63.4c0-1.6-0.7-3.2-2-4.2L92.9,53z"/>
		<path class="st2" d="M100.8,59.2L92.9,53c0,0,1-1,1-5.8c0-6.9-2.6-12-2.6-12h-6.6c-0.2,3.7-0.5,8.2-0.8,12
			c-0.3,4.7,1.6,9.2,5.3,12.1c1.3,1,2,2.6,2,4.2v49.1c0,1.7-1.4,3.2-3.2,3.2h11.6c1.7,0,3.2-1.4,3.2-3.2V63.4
			C102.8,61.8,102,60.3,100.8,59.2z"/>
		<path class="st3" d="M102.8,66.6H71V109h31.7V66.6z"/>
		<path class="st3" d="M93.9,46.7c-0.1-6.7-2.6-11.5-2.6-11.5h-8.8c0,0-2.4,4.8-2.6,11.5H93.9z"/>
		<path class="st3" d="M43.2,54V43.5h-8V54c0,3.2-2.4,6-5.7,6.4c-3.3,0.4-5.8,3.2-5.8,6.5v45.9c0,1.6,1.3,2.9,2.9,2.9h25.1
			c1.6,0,2.9-1.3,2.9-2.9V66.9c0-3.3-2.5-6.1-5.8-6.5C45.6,60,43.2,57.2,43.2,54z"/>
		<path class="st4" d="M48.8,60.4c-3.2-0.4-5.7-3.2-5.7-6.4V43.5h-5.6v69.3c0,1.6-1.3,2.9-2.9,2.9h17.1c1.6,0,2.9-1.3,2.9-2.9V66.9
			C54.6,63.6,52.1,60.8,48.8,60.4z"/>
		<path class="st5" d="M43.5,53.1h-8.6c-0.4,0-0.8-0.4-0.8-0.8v-7.9c0-0.4,0.4-0.8,0.8-0.8h8.6c0.4,0,0.8,0.4,0.8,0.8v7.9
			C44.3,52.7,43.9,53.1,43.5,53.1z"/>
		<path class="st3" d="M29.5,60.4c-3.3,0.4-5.8,3.2-5.8,6.5v45.9c0,1.6,1.3,2.9,2.9,2.9h25.1c1.6,0,2.9-1.3,2.9-2.9V66.9
			c0-3.3-2.5-6.1-5.8-6.5C47.9,60.3,30.3,60.3,29.5,60.4z"/>
		<path class="st4" d="M54.3,65.1c-0.1-0.4-0.2-0.8-0.4-1.1c-0.1-0.2-0.2-0.3-0.3-0.5c-0.8-1.3-2-2.3-3.4-2.8
			c-0.4-0.1-0.9-0.3-1.4-0.3c-0.5,0-6.2-0.1-11.3-0.1v52.5c0,1.6-1.3,2.9-2.9,2.9h17c0.7,0,1.4-0.2,1.8-0.7c0.5-0.4,0.9-1,1-1.6
			c0-0.2,0-0.4,0-0.6V66.9C54.6,66.3,54.5,65.7,54.3,65.1z"/>
		<path class="st6" d="M50.2,102.7V70.4c0-1.1-0.9-2.1-2.1-2.1H30.2c-1.1,0-2.1,0.9-2.1,2.1v32.3c0,0.8,0.7,1.5,1.5,1.5h19.1
			C49.5,104.2,50.2,103.5,50.2,102.7z"/>
		<path class="st7" d="M37.5,104.2h11.2c0.8,0,1.5-0.7,1.5-1.5V70.4c0-1.1-0.9-2.1-2.1-2.1H37.5V104.2z"/>
		<path class="st5" d="M39.1,83.3c2.9,0,5.3-2.4,5.3-5.3c0-2.9-2.4-5.3-5.3-5.3c-2.9,0-5.3,2.4-5.3,5.3
			C33.8,80.9,36.2,83.3,39.1,83.3z"/>
		<path class="st8" d="M37.5,83.1c0.5,0.2,1.1,0.2,1.6,0.2c3,0,5.3-2.4,5.3-5.3c0-3-2.4-5.3-5.3-5.3c-0.6,0-1.1,0.1-1.6,0.2V83.1z"
			/>
		<path class="st1" d="M50.2,87.7H28.1v5.6h22.1V87.7z"/>
		<path class="st2" d="M50.2,87.7H37.5v5.6h12.6V87.7z"/>
		<path class="st9" d="M76,107.2c-0.5-0.4-0.8-1-0.8-1.6l1-59.4c0-0.9-0.3-1.8-0.9-2.5l-6.1-6.2c-0.9-0.9-1.4-2.2-1.4-3.4V10.3h-5.2
			h-5.2V34c0,1.3-0.5,2.5-1.4,3.4l-6.1,6.2c-0.6,0.7-1,1.6-0.9,2.5l1,59.4c0,0.6-0.3,1.3-0.8,1.6c-0.3,0.2-0.6,0.7-0.6,1.2l0.1,5.1
			c0,1.2,1,2.2,2.3,2.2h11.5h11.5c1.2,0,2.2-1,2.3-2.2l0.1-5.1C76.6,107.9,76.4,107.5,76,107.2z"/>
		<path class="st3" d="M76,107.2c-0.5-0.4-0.8-1-0.8-1.6l1-59.4c0-0.9-0.3-1.8-0.9-2.5l-6.1-6.2c-0.9-0.9-1.4-2.2-1.4-3.4V10.3h-5.2
			h-5.2v23.1c0,0.4,0.1,0.8,0.3,1.1l6.2,9.2c0.6,0.7,1,1.6,0.9,2.5l-1,59.4c0,0.6,0.3,1.3,0.8,1.6c0.3,0.2,0.6,0.7,0.6,1.2l-0.1,5.1
			c0,1.2-1,2.2-2.3,2.2h11.4c1.2,0,2.2-1,2.3-2.2l0.1-5.1C76.6,107.9,76.4,107.5,76,107.2z"/>
		<path class="st2" d="M67.6,30.7h-9.9c-0.5,0-0.9-0.4-0.9-0.9V11.2c0-0.5,0.4-0.9,0.9-0.9h9.9c0.5,0,0.9,0.4,0.9,0.9v18.7
			C68.4,30.3,68,30.7,67.6,30.7z"/>
		<path class="st1" d="M55.4,57.3c4.7-3.1,9.8-3.1,14.5,0c0.4,0.3,1,0,1-0.5l0.1-3c0-1.1-0.6-2-1.5-2.4c-4.5-1.9-9.3-1.9-13.7,0
			c-1,0.4-1.6,1.4-1.6,2.4l0.1,3C54.4,57.3,54.9,57.6,55.4,57.3z"/>
		<path class="st1" d="M68.7,77.1H56.6c-0.6,0-1-0.4-1-1l-0.2-9.5c0-0.6,0.4-1,1-1h12.5c0.6,0,1,0.5,1,1l-0.2,9.5
			C69.7,76.7,69.2,77.1,68.7,77.1z"/>
		<path class="st4" d="M102.8,66.6H91.2V109h11.6V66.6z"/>
		<path class="st6" d="M94.1,78.5c-4.8-2.2-9.5-2.2-14.4,0c-0.6,0.2-1.3,0-1.6-0.5c-0.4-0.7-0.8-1.4-1.2-2c-0.4-0.6-0.1-1.5,0.5-1.8
			c6.3-2.9,12.6-2.9,18.8,0c0.7,0.3,0.9,1.1,0.5,1.8c-0.4,0.7-0.8,1.4-1.2,2C95.3,78.5,94.7,78.7,94.1,78.5z"/>
		<path class="st6" d="M86.9,94.5c4.4,0,7.9-2.4,7.9-5.4s-3.5-5.4-7.9-5.4C82.5,83.6,79,86,79,89S82.5,94.5,86.9,94.5z"/>
		<path class="st7" d="M91.2,84.4v9.1c2.2-1,3.6-2.7,3.6-4.6C94.8,87.1,93.4,85.4,91.2,84.4z"/>
		<path class="st7" d="M96.3,74.1c-1.7-0.8-3.4-1.4-5.1-1.7v5c1,0.3,1.9,0.6,2.9,1c0.6,0.2,1.3,0,1.6-0.5c0.4-0.7,0.8-1.4,1.2-2
			C97.2,75.3,97,74.5,96.3,74.1z"/>
		<path class="st4" d="M93.9,46.7c-0.1-6.1-2.1-10.6-2.5-11.3c0,0,0,0,0,0c0,0,0,0,0,0c0,0,0,0,0,0h-6.6c-0.2,3.5-0.5,7.8-0.8,11.5
			H93.9z"/>
		<path class="st4" d="M92.2,36.7H81.6c-0.5,0-0.9-0.4-0.9-0.9v-9.3c0-0.5,0.4-0.9,0.9-0.9h10.7c0.5,0,0.9,0.4,0.9,0.9v9.3
			C93.1,36.3,92.7,36.7,92.2,36.7z"/>
		<path class="st2" d="M68.9,65.6h-4.3l-0.2,11.6h4.3c0.6,0,1-0.4,1-1l0.2-9.5C69.9,66,69.4,65.6,68.9,65.6z"/>
		<path class="st2" d="M69.5,51.3c-1.5-0.6-3.1-1.1-4.7-1.3l-0.1,5.1c1.7,0.3,3.5,1,5.1,2.1c0.4,0.3,1,0,1-0.5l0.1-3
			C71.1,52.7,70.5,51.7,69.5,51.3z"/>
		<path d="M43.6,97.7h-8.9c-0.9,0-1.6,0.7-1.6,1.6c0,0.9,0.7,1.6,1.6,1.6h8.9c0.9,0,1.6-0.7,1.6-1.6C45.2,98.4,44.5,97.7,43.6,97.7z
			"/>
		<path d="M68.6,96.3H56.7c-0.9,0-1.6,0.7-1.6,1.6c0,0.9,0.7,1.6,1.6,1.6h11.9c0.9,0,1.6-0.7,1.6-1.6C70.1,97,69.4,96.3,68.6,96.3z"
			/>
		<path d="M68.6,101.2H56.7c-0.9,0-1.6,0.7-1.6,1.6s0.7,1.6,1.6,1.6h11.9c0.9,0,1.6-0.7,1.6-1.6S69.4,101.2,68.6,101.2z"/>
		<path d="M95.1,99.8H78.7c-0.9,0-1.6,0.7-1.6,1.6s0.7,1.6,1.6,1.6h16.4c0.9,0,1.6-0.7,1.6-1.6C96.7,100.6,96,99.8,95.1,99.8z"/>
		<path d="M39.2,71.1c-3.8,0-6.9,3.1-6.9,6.9c0,3.8,3.1,6.9,6.9,6.9c3.8,0,6.9-3.1,6.9-6.9C46.1,74.2,43,71.1,39.2,71.1z M39.2,81.8
			c-2.1,0-3.8-1.7-3.8-3.8s1.7-3.8,3.8-3.8s3.8,1.7,3.8,3.8C42.9,80.1,41.2,81.8,39.2,81.8z"/>
		<path d="M70.1,49.9c-4.8-2-10.1-2-15,0c-1.6,0.7-2.6,2.2-2.5,3.9l0.1,3c0,0.8,0.5,1.5,1.2,1.9c0.7,0.4,1.6,0.3,2.2-0.1
			c4.1-2.7,8.7-2.7,12.8,0c0.4,0.2,0.8,0.4,1.2,0.4c0.3,0,0.7-0.1,1-0.2c0.7-0.4,1.2-1.1,1.2-1.9l0.1-3
			C72.7,52.1,71.7,50.5,70.1,49.9z M69.4,55.2c-2.2-1.2-4.5-1.7-6.8-1.7c-2.3,0-4.6,0.6-6.8,1.7l-0.1-1.5c0-0.4,0.2-0.8,0.6-0.9
			c4.1-1.7,8.4-1.7,12.5,0c0.4,0.1,0.6,0.5,0.6,0.9L69.4,55.2z"/>
		<path d="M68.9,64H56.4c-0.7,0-1.4,0.3-1.8,0.8c-0.5,0.5-0.8,1.2-0.7,1.8l0.2,9.5c0,1.4,1.2,2.5,2.6,2.5h12.1
			c1.4,0,2.6-1.1,2.6-2.5l0.2-9.5c0-0.7-0.2-1.4-0.7-1.8C70.2,64.3,69.5,64,68.9,64z M68.1,75.6h-11L57,67.1h11.3L68.1,75.6z"/>
		<path d="M86.9,96c5.3,0,9.5-3.1,9.5-7c0-3.9-4.2-7-9.5-7c-5.3,0-9.5,3.1-9.5,7C77.4,92.9,81.6,96,86.9,96z M86.9,85.1
			c3.4,0,6.3,1.8,6.3,3.9c0,2.1-2.9,3.9-6.3,3.9c-3.4,0-6.3-1.8-6.3-3.9C80.5,86.9,83.5,85.1,86.9,85.1z"/>
		<path class="st10" d="M99.6,117.3c2.6,0,4.7-2.1,4.7-4.7V63.4c0-2.1-1-4.1-2.6-5.4l-6.9-5.5c0.3-1.1,0.6-2.7,0.6-5.4
			c0-4-0.8-7.4-1.5-9.6c0.4-0.4,0.7-1,0.7-1.7v-9.3c0-1.3-1.1-2.4-2.4-2.4H81.6c-1.3,0-2.4,1.1-2.4,2.4v9.3c0,0.7,0.3,1.3,0.7,1.7
			c-0.7,2.2-1.5,5.6-1.5,9.6c0,2.6,0.3,4.3,0.6,5.4l-1.3,1l0.1-7.3c0-1.3-0.4-2.6-1.4-3.6l-6.1-6.2c-0.6-0.6-1-1.5-1-2.4v-2.6
			c0.3-0.4,0.6-1,0.6-1.6V11.2c0-1.4-1.1-2.4-2.4-2.4h-9.9c-1.4,0-2.4,1.1-2.4,2.4v18.7c0,0.6,0.2,1.1,0.6,1.6V34
			c0,0.9-0.3,1.7-1,2.4l-6.1,6.2c-0.9,1-1.4,2.3-1.4,3.6l0.2,12.2c-1.6-0.7-2.8-2.3-2.9-4.2c0.7-0.4,1.1-1.2,1.1-2v-8
			c0-1.3-1.1-2.4-2.4-2.4h-8.6c-1.3,0-2.4,1.1-2.4,2.4v7.9c0,0.8,0.4,1.6,1.1,2c-0.1,2.3-1.9,4.3-4.3,4.6c-4.1,0.5-7.1,4-7.1,8.1
			v4.9c0,0.9,0.7,1.6,1.6,1.6c0.9,0,1.6-0.7,1.6-1.6v-4.9c0-2.5,1.9-4.7,4.4-5c0.1,0,0.5,0,1.1,0c0.1,0,0.3,0,0.4,0c0,0,0.1,0,0.2,0
			c0,0,0,0,0.1,0s0.1,0,0.1,0c0,0,0.1,0,0.1,0c3.7,0,11.1,0,14.8,0c0.1,0,0.1,0,0.2,0c0,0,0,0,0.1,0c0,0,0.1,0,0.1,0
			c0,0,0.1,0,0.1,0c0.2,0,0.4,0,0.6,0l0.1,4.9H30.2c-2,0-3.6,1.6-3.6,3.6v32.3c0,1.7,1.4,3.1,3.1,3.1h18.8c0,0.1-0.1,0.1-0.1,0.2
			c-0.8,0.6-1.2,1.5-1.2,2.5l0.1,5.1c0,0.2,0,0.4,0.1,0.6H26.6c-0.7,0-1.3-0.6-1.3-1.3V79c0-0.9-0.7-1.6-1.6-1.6
			c-0.9,0-1.6,0.7-1.6,1.6v33.7c0,2.5,2,4.5,4.5,4.5L99.6,117.3C99.6,117.3,99.6,117.3,99.6,117.3z M35.6,45.1h7.1v6.4h-7.1V45.1z
			 M37.1,58.7c-0.7,0-1.3,0-2,0c0,0,0,0,0,0c0.9-1.2,1.4-2.6,1.6-4.1h4.9c0.1,1.5,0.7,2.9,1.6,4.1C41.3,58.7,39.1,58.7,37.1,58.7z
			 M29.7,70.4c0-0.3,0.2-0.5,0.5-0.5h17.6l0.3,16.3H29.7L29.7,70.4z M29.7,89.3h18.5l0,2.5H29.7V89.3z M29.7,102.6v-7.7h18.6
			l0.1,7.7H29.7z M58.4,11.9h8.5v2.4h-8.5V11.9z M58.4,17.4h8.5v11.7h-8.5V17.4z M74.9,113.4c0,0.4-0.3,0.7-0.7,0.7H51.1
			c-0.4,0-0.7-0.3-0.7-0.7l-0.1-5c0.9-0.7,1.4-1.7,1.4-2.9l-1-59.4c0,0,0,0,0,0v0c0,0,0,0,0,0c0-0.5,0.2-1,0.5-1.3l6.1-6.2
			c1.2-1.2,1.8-2.8,1.8-4.5v-1.7h7.4V34c0,1.7,0.7,3.3,1.8,4.5l6.1,6.2c0.3,0.3,0.5,0.8,0.5,1.3c0,0,0,0,0,0l-1,59.4
			c0,1.2,0.5,2.2,1.4,2.9L74.9,113.4z M82.3,27.2h9.2v2.4h-9.2V27.2z M82.3,32.5h9.2v2.6h-9.2V32.5z M82.9,38.2h7.9
			c0.5,1.6,1.2,4,1.4,6.8H81.6C81.8,42.2,82.4,39.8,82.9,38.2z M101.2,112.5c0,0.9-0.7,1.6-1.6,1.6H77.9c0-0.2,0-0.4,0.1-0.6
			l0.1-2.9h23.1V112.5z M101.2,65H87.5c-0.9,0-1.6,0.7-1.6,1.6c0,0.9,0.7,1.6,1.6,1.6h13.7v39.3H78c-0.2-0.6-0.6-1.2-1.1-1.5
			c-0.1-0.1-0.1-0.2-0.1-0.4l0.5-26.3c0.5,0.5,1.2,0.8,2,0.8c0.4,0,0.8-0.1,1.1-0.2c4.5-2,8.6-2,13.1,0c1.3,0.6,2.8,0.1,3.5-1.1
			l1.2-2c0.4-0.7,0.5-1.5,0.3-2.3c-0.2-0.8-0.8-1.4-1.5-1.7c-6.5-3-13.1-3.1-19.6-0.2l0.1-4.3h2.7c0.9,0,1.6-0.7,1.6-1.6
			c0-0.9-0.7-1.6-1.6-1.6h-2.6l0.1-7.4l4.3-3.4c0.3-0.3,0.6-0.7,0.6-1.1c0-0.4-0.1-0.8-0.3-1.1c-0.1-0.1-0.5-1.1-0.6-3.7h10.8
			c-0.1,2.7-0.6,3.6-0.6,3.7c-0.2,0.3-0.4,0.7-0.3,1.1c0,0.4,0.2,0.9,0.6,1.1l7.9,6.3c0.9,0.7,1.4,1.8,1.4,3V65z M94.5,76.9
			c-5.1-2.2-10-2.2-15.1,0l-0.9-1.5c5.6-2.5,11.3-2.5,16.9,0L94.5,76.9z"/>
		<rect x="-38.6" y="66" class="st11" width="194.7" height="170.4"/>
	</g>
</g>
</svg>
